{
  "project_info": {
    "project_number": "162578906947",
    "firebase_url": "https://bookmanagerfire.firebaseio.com",
    "project_id": "bookmanagerfire",
    "storage_bucket": "bookmanagerfire.appspot.com"
  },
  "client": [
    {
      "client_info": {
        "mobilesdk_app_id": "1:162578906947:android:d27a28132273851b59b9f6",
        "android_client_info": {
          "package_name": "com.example.bookmanager1"
        }
      },
      "oauth_client": [
        {
          "client_id": "162578906947-l6cg0gcpckiimvti96pfd06ka4gvqvai.apps.googleusercontent.com",
          "client_type": 1,
          "android_info": {
            "package_name": "com.example.bookmanager1",
            "certificate_hash": "bc9bb838bf5eff35b7618c0ad854420cbc890983"
          }
        },
        {
          "client_id": "162578906947-518ukq2364rhgp54nng2qtiqicke3i1g.apps.googleusercontent.com",
          "client_type": 3
        }
      ],
      "api_key": [
        {
          "current_key": "AIzaSyD88mDPRsXoetklMCF9fMRfzeSY0Q8bAls"
        }
      ],
      "services": {
        "appinvite_service": {
          "other_platform_oauth_client": [
            {
              "client_id": "162578906947-518ukq2364rhgp54nng2qtiqicke3i1g.apps.googleusercontent.com",
              "client_type": 3
            }
          ]
        }
      }
    }
  ],
  "configuration_version": "1"
}